tamano mapa: 5
R->+TR|#|
T->FY|
E->TR|
F->(E)|i|
Y->*FY|#|


First de R
# + 
Follow de R
$ ) 
First de T
( i 
Follow de T
$ ) + 
First de E
( i 
Follow de E
$ ) 
First de F
( i 
Follow de F
$ ) * + 
First de Y
# * 
Follow de Y
$ ) + 
Regla	(		    )		i		    *		    +		    $		
R	    x		    [#]	    x		    x		    [+, T, R]	[#]	
T	    [F, Y]	    x		[F, Y]	    x		    x		    x		
E	    [T, R]	    x		[T, R]	    x		    x		    x		
F	    [(, E, )]	x		[(, E, )]	x		    x		    x		
Y	    x		    [#]	    x		    [*, F, Y]	[#]	        [#]	
