tamano mapa: 5
E'->+TE'|#|
T'->*FT'|#|
T->FT'|
E->TE'|
F->(E)|id|


First de E'
# + 
Follow de E'
$ ) 
First de T'
# * 
Follow de T'
$ ) + 
First de T
( id 
Follow de T
$ ) + 
First de E
( id 
Follow de E
$ ) 
First de F
( id 
Follow de F
$ ) * + 
Regla		(		    	)		*		    	+		    	id		    	$		
E	    	[T, E']	    	    	x		x		    	x		    	[T, E']	    		x		
E'	   	x			[#]	    	x		    	[+, T, E']		x		    	[#]	
T	    	[F, T']	    	    	x		x		    	x		    	[  F, T']		x		
T'	    	x		    	[#]	    	[*, F, T']		[#]	        	x		    	[#]	
F	    	[(, E, )]		x	    	x		    	x		   	[id]	    		x		
