

First de R:
# + 
Follow de R:
$ ) 

First de T:
( i 
Follow de T:
$ ) + 

First de E:
( i 
Follow de E:
$ ) 

First de F:
( i 
Follow de F:
$ ) * + 

First de Y:
# * 
Follow de Y:
$ ) + 
